<?xml version="1.0" encoding="UTF-8"?>
<Project>
   <description></description>
   <name>web-service-tests</name>
   <tag></tag>
   <UUID>8adb3994-89eb-4f15-991b-dc5f3ab768b6</UUID>
   <migratedVersion>5.9.0</migratedVersion>
   <pageLoadTimeout>0</pageLoadTimeout>
   <projectFileLocation>/Users/user/QA-Testing/FMC-SERVICE/FMC-AUTOMATION/web-service-tests.prj</projectFileLocation>
   <sourceContent>
      <sourceFolderList>
         <sourceFolderConfiguration>
            <url>Include/scripts/groovy</url>
         </sourceFolderConfiguration>
      </sourceFolderList>
      <systemFolderList>
         <systemFolderConfiguration>
            <url>Include/scripts/groovy</url>
         </systemFolderConfiguration>
         <systemFolderConfiguration>
            <url>Include/features</url>
         </systemFolderConfiguration>
         <systemFolderConfiguration>
            <url>Include/config</url>
         </systemFolderConfiguration>
      </systemFolderList>
   </sourceContent>
   <timeStampInProperties>true</timeStampInProperties>
   <type>WEBSERVICE</type>
</Project>
